<?xml version="1.0" encoding="utf-8"?>
<!-- Generator: Adobe Illustrator 18.0.0, SVG Export Plug-In . SVG Version: 6.00 Build 0)  -->
<!DOCTYPE svg PUBLIC "-//W3C//DTD SVG 1.1//EN" "http://www.w3.org/Graphics/SVG/1.1/DTD/svg11.dtd">
<svg version="1.1" id="Layer_1" xmlns="http://www.w3.org/2000/svg" xmlns:xlink="http://www.w3.org/1999/xlink" x="0px" y="0px"
	 viewBox="0 502 792 220" enable-background="new 0 502 792 220" xml:space="preserve">
<g>
	<path fill="#FFFFFF" d="M27.2,517.5H14.4V513h30.8v4.6h-13V559h-4.9v-41.4H27.2z"/>
	<path fill="#FFFFFF" d="M52.9,513h4.9v20.5H80V513h4.9v46H80V538H57.8v20.8h-4.9C52.9,558.9,52.9,513,52.9,513z"/>
	<path fill="#FFFFFF" d="M96.6,513h28.1v4.5h-23.1v16h20.8v4.5h-20.8v16.4h23.5v4.5H96.6V513z"/>
	<path fill="#FFFFFF" d="M150.6,555l14.8-16.6c5.5-5.9,7.6-9.3,7.6-13.5c0-5.1-3.7-8.2-8.3-8.2c-4.2,0-7.2,2.2-10.3,6.6l-3.4-2.9
		c3.4-5.1,7.6-8.2,14.2-8.2c7.5,0,12.9,5.1,12.9,12.3v0.2c0,5.9-2.8,9.8-9.3,16.6l-11.5,13h21.1v4.6h-27.9L150.6,555L150.6,555z"/>
	<path fill="#FFFFFF" d="M185.6,554l3-3.7c3.1,2.9,6.6,4.9,10.6,4.9c5.8,0,10-4.3,10-10.3v-0.2c0-6-4.3-9.6-10-9.6
		c-3.3,0-5.8,0.9-8,2.1L188,535l1.2-22h23v4.6h-18.7l-0.9,14.7c2.2-0.9,4.3-1.6,7.4-1.6c7.8,0,14.2,4.9,14.2,13.9v0.2
		c0,8.9-6.4,15-15,15C193.7,559.7,189,557.2,185.6,554z"/>
	<path fill="#FFFFFF" d="M242.6,513h5.1l14,24.6l14.1-24.6h5.1v46H276v-37.1l-14.3,24.6h-0.2l-14.2-24.6V559h-4.8v-46H242.6z"/>
	<path fill="#FFFFFF" d="M290.5,536.2v-0.5c0-13.5,8.1-23.5,19.8-23.5s19.7,9.9,19.7,23.4v0.5c0,13.5-8.1,23.5-19.8,23.5
		C298.5,559.7,290.5,549.8,290.5,536.2z M325,536.2v-0.5c0-11.1-6.2-19-14.7-19s-14.7,7.8-14.7,18.9v0.5c0,11.1,6.2,19,14.7,19
		S325,547.2,325,536.2z"/>
	<path fill="#FFFFFF" d="M335.5,553l3.1-3.7c3.8,3.5,7.8,5.7,12.9,5.7c5.5,0,9.2-3.4,9.2-7.8v-0.1c0-3.8-1.8-6.2-10.2-9.2
		c-9.5-3.5-13.3-7-13.3-13.5l0,0c0-6.9,5.8-12.2,13.9-12.2c5.3,0,9.7,1.6,13.8,5.2l-3,3.8c-3.4-3-7-4.5-11-4.5
		c-5.3,0-8.7,3.2-8.7,7.2v0.1c0,4,2,6.3,10.7,9.5c9.3,3.5,12.7,7.2,12.7,13.3v0.1c0,7.4-6,12.5-14.3,12.5
		C345.6,559.5,340.3,557.5,335.5,553z"/>
	<path fill="#FFFFFF" d="M385,517.5h-12.9V513h30.8v4.6H390V559h-5V517.5z"/>
	<path fill="#FFFFFF" d="M431,513h4.9v46H431V513z"/>
	<path fill="#FFFFFF" d="M447.6,513h4.7l24,36.2V513h4.9v46H477l-24.6-37.1V559h-4.8V513z"/>
	<path fill="#FFFFFF" d="M490.8,536.2v-0.4c0-13.9,8.7-23.5,20.2-23.5c6.3,0,10.4,2.3,14,5.7l-3,3.7c-2.9-2.8-6.4-4.8-11-4.8
		c-8.5,0-15,7.8-15,18.9v0.3c0,11.3,6.5,19,15,19c4.7,0,8.1-2,11.4-5.1l3,3.4c-3.9,3.8-8.3,6.3-14.6,6.3
		C499.3,559.5,490.8,550.2,490.8,536.2z"/>
	<path fill="#FFFFFF" d="M532.9,513h15.7c5.3,0,9.5,1.6,12.1,4.3c2.3,2.3,3.6,5.6,3.6,9.5v0.1c0,7.3-4.5,11.7-10.9,13.3l12.4,18.9
		h-5.9l-11.6-17.9h-10.4V559H533L532.9,513L532.9,513z M547.8,536.5c7.5,0,11.6-3.7,11.6-9.6v-0.1c0-6-4.2-9.4-11.1-9.4h-10.4v19.1
		H547.8z"/>
	<path fill="#FFFFFF" d="M573.9,513H602v4.5h-23.1v16h20.8v4.5h-20.8v16.4h23.5v4.5H574L573.9,513L573.9,513z"/>
	<path fill="#FFFFFF" d="M610.4,513h13c12.8,0,21.6,9.2,21.6,22.7v0.5c0,13.5-8.8,22.8-21.6,22.8h-13V513z M615.4,517.5v36.9h8
		c10.1,0,16.6-7.3,16.6-18.2v-0.5c0-10.9-6.6-18.3-16.6-18.3L615.4,517.5L615.4,517.5z"/>
	<path fill="#FFFFFF" d="M654.7,513h4.9v46h-4.9V513z"/>
	<path fill="#FFFFFF" d="M671.3,513h15.6c4.9,0,8.8,1.4,11.4,3.9c1.9,1.9,3,4.5,3,7.6v0.1c0,6.1-3.7,9.2-7.6,10.7
		c5.4,1.6,9.5,4.8,9.5,11v0.2c0,7.8-6.4,12.4-16,12.4h-15.9V513z M696.3,525c0-4.7-3.5-7.7-9.7-7.7h-10.4v16.2h9.9
		c6.1,0,10.1-3,10.1-8.3V525H696.3z M686.9,537.9h-10.6v16.6h11.2c6.6,0,10.8-3,10.8-8.3V546C698.3,541,694.3,537.9,686.9,537.9z"/>
	<path fill="#FFFFFF" d="M712.5,513h4.9v41.5h21.4v4.5h-26.3L712.5,513L712.5,513z"/>
	<path fill="#FFFFFF" d="M746.5,513h28.1v4.5h-23.1v16h20.8v4.5h-20.8v16.4H775v4.5h-28.4L746.5,513L746.5,513z"/>
	<path fill="#FFFFFF" d="M45.6,628.8c-1.1,0-2.2,0.1-3.2,0.1h-1l-5.3,22H12.8l18.5-75.4h24.2c12.7,0,21,2.7,25.9,7.5
		c4,3.9,5.7,9.3,5.7,15.2c0,7.8-2.3,14.4-7.4,19.6c-2.8,2.8-6.5,5.1-11.3,6.8L77,651H52.2L45.6,628.8z M51.6,611.9
		c4.3,0,7.2-1.2,9.1-3c1.8-1.8,2.8-5,2.8-7.3c0-1.9-0.6-3.3-1.7-4.4c-1.2-1.2-3.2-1.9-6.2-1.9h-5.8L45.7,612L51.6,611.9L51.6,611.9z
		"/>
	<path fill="#FFFFFF" d="M100.8,575.5h55.3l-5,19.8h-32.3l-2,8.6h29.8l-4.4,18.1h-29.8l-2.3,9.1H143l-4.8,19.8H82.3L100.8,575.5z"/>
	<path fill="#FFFFFF" d="M165.7,575.5h23.2L170.5,651h-23.3L165.7,575.5z"/>
	<path fill="#FFFFFF" d="M199,575.5h22l12.9,33.9l8.4-33.9h23L246.9,651h-21l-13.8-35.5l-8.7,35.6h-23L199,575.5z"/>
	<path fill="#FFFFFF" d="M267.8,575.5h24.9l1.3,41.9l22.2-41.9h25.4l-44,75.9h-23L267.8,575.5z"/>
	<path fill="#FFFFFF" d="M344.5,575.5h55.3l-5,19.8h-32.3l-2,8.6h29.8l-4.4,18.1H356l-2.3,9.1h32.9l-4.8,19.8H326L344.5,575.5z"/>
	<path fill="#FFFFFF" d="M409.4,575.5h22l12.9,33.9l8.4-33.9h23L457.3,651h-21l-13.8-35.5l-8.7,35.6h-23L409.4,575.5z"/>
	<path fill="#FFFFFF" d="M493.2,596h-18.4l5.1-20.4h60l-5.1,20.4h-18.3L503,651h-23.3L493.2,596z"/>
	<path fill="#FFFFFF" d="M544,575.5h23.2L548.8,651h-23.3L544,575.5z"/>
	<path fill="#FFFFFF" d="M635.8,605.8c0,12.1-4.6,26.5-13.9,35.8c-6.7,6.7-15.9,11-26.3,11c-18.6,0-31.9-12.1-31.9-31.7
		c0-12.1,4.6-26.5,14-35.9c6.7-6.7,15.9-10.9,26.3-10.9C622.6,574,635.8,586.2,635.8,605.8z M605.3,628.2c4.6-4.6,7.3-14.4,7.3-20.9
		c0-8.2-3.8-12.7-10-12.7c-3.2,0-6,1.3-8.3,3.7c-4.6,4.6-7.3,14.5-7.3,21c0,8.2,3.7,12.6,10,12.6C600.1,632,602.9,630.7,605.3,628.2
		z"/>
	<path fill="#FFFFFF" d="M651.3,575.5h22l12.9,33.9l8.4-33.9h23L699.2,651h-21l-13.7-35.5l-8.7,35.6h-23L651.3,575.5z"/>
	<path fill="#FFFFFF" d="M708.1,640.6l12-17.2c7.1,6.2,14.8,9.5,21.3,9.5c3.2,0,5.4-1.4,5.4-3.8c0-2.4-1.5-3.3-9.7-7.2
		c-11.6-5.5-17.5-11-17.5-21.3c0-6.9,2.6-13,7.2-17.7c5.4-5.4,13.5-8.6,23.6-8.6c11.2,0,21.2,3.8,28.7,10.1l-12.5,16.7
		c-4.5-3.8-11.2-7.3-17.8-7.3c-3.3,0-5.5,1.3-5.5,3.6s1.6,3.2,10.2,7.4c10.3,5.1,17.1,10.5,17.1,21.3c0,6.9-2.6,13.3-7.3,18
		c-5.3,5.3-13.4,8.4-23.6,8.4C727.3,652.3,716.4,647.8,708.1,640.6z"/>
	<path fill="#FFFFFF" d="M22.2,667.8h4.9v46h-4.9V667.8z"/>
	<path fill="#FFFFFF" d="M38.1,667.8h4.7l24,36.2v-36.2h4.9v46h-4.1L43,676.7v37.1h-4.8v-46H38.1z"/>
	<path fill="#FFFFFF" d="M101,667.8h13.9c9.8,0,16.2,5.5,16.2,14.6v0.1c0,9.7-7.4,15-16.8,15H106v16.2h-5V667.8z M114.5,693
		c7.2,0,11.6-4.1,11.6-10.4v-0.1c0-6.7-4.5-10.2-11.4-10.2H106v20.8h8.5V693z"/>
	<path fill="#FFFFFF" d="M137.1,691.1v-0.5c0-13.5,8.1-23.5,19.8-23.5s19.7,9.9,19.7,23.4v0.5c0,13.5-8.1,23.5-19.8,23.5
		S137.1,704.5,137.1,691.1z M171.6,691v-0.5c0-11.1-6.2-19-14.7-19s-14.7,7.8-14.7,18.9v0.5c0,11.1,6.2,19,14.7,19
		S171.6,702.1,171.6,691z"/>
	<path fill="#FFFFFF" d="M185.7,667.8h13.9c9.8,0,16.2,5.5,16.2,14.6v0.1c0,9.7-7.4,15-16.8,15h-8.3v16.2h-4.9L185.7,667.8
		L185.7,667.8z M199.1,693c7.2,0,11.6-4.1,11.6-10.4v-0.1c0-6.7-4.5-10.2-11.4-10.2h-8.7v20.8h8.5V693z"/>
	<path fill="#FFFFFF" d="M240.1,691v-0.4c0-13.9,8.7-23.5,20.2-23.5c6.3,0,10.4,2.3,14,5.7l-3,3.7c-2.9-2.8-6.4-4.8-11-4.8
		c-8.5,0-15,7.8-15,18.9v0.3c0,11.3,6.5,19,15,19c4.7,0,8.1-2,11.4-5.1l3,3.4c-3.9,3.8-8.3,6.3-14.6,6.3
		C248.6,714.3,240.1,705,240.1,691z"/>
	<path fill="#FFFFFF" d="M281.2,696.6v-28.8h4.9v28.7c0,8.7,4.4,13.5,11.6,13.5c7,0,11.5-4.5,11.5-13.3v-28.9h4.9v28.6
		c0,11.8-6.6,18.1-16.6,18.1C287.8,714.5,281.2,708.2,281.2,696.6z"/>
	<path fill="#FFFFFF" d="M324.8,667.8h4.9v41.5h21.4v4.5h-26.3V667.8z"/>
	<path fill="#FFFFFF" d="M362.5,672.3h-12.9v-4.6h30.8v4.6h-12.9v41.4h-4.9v-41.4H362.5z"/>
	<path fill="#FFFFFF" d="M387.3,696.6v-28.8h4.9v28.7c0,8.7,4.4,13.5,11.6,13.5c7,0,11.5-4.5,11.5-13.3v-28.9h4.9v28.6
		c0,11.8-6.6,18.1-16.6,18.1C393.9,714.5,387.3,708.2,387.3,696.6z"/>
	<path fill="#FFFFFF" d="M430.9,667.8h15.7c5.3,0,9.5,1.6,12.1,4.3c2.3,2.3,3.6,5.6,3.6,9.5v0.1c0,7.3-4.5,11.7-10.9,13.3l12.4,18.9
		h-5.9L446.3,696h-10.4v17.9H431v-46.1H430.9z M445.7,691.3c7.5,0,11.6-3.7,11.6-9.6v-0.1c0-6-4.2-9.4-11.1-9.4h-10.4v19.1H445.7z"
		/>
	<path fill="#FFFFFF" d="M471.2,667.8h28.1v4.5h-23.1v16H497v4.5h-20.8v16.4h23.5v4.5h-28.4v-45.9H471.2z"/>
	<path fill="#FFFFFF" d="M526.7,667.8h4.9v20.6h22.2v-20.6h4.9v46h-4.9V693h-22.2v20.8h-4.9V667.8z"/>
	<path fill="#FFFFFF" d="M569.9,667.8h4.9v46h-4.9V667.8z"/>
	<path fill="#FFFFFF" d="M582.4,707.8l3.1-3.7c3.8,3.5,7.8,5.7,12.9,5.7c5.5,0,9.2-3.4,9.2-7.8V702c0-3.8-1.8-6.2-10.2-9.2
		c-9.5-3.5-13.3-7-13.3-13.5v-0.1c0-6.9,5.8-12.2,13.9-12.2c5.3,0,9.7,1.6,13.8,5.2l-3,3.8c-3.4-3-7-4.5-11-4.5
		c-5.3,0-8.7,3.2-8.7,7.2v0.1c0,4,2,6.3,10.7,9.5c9.3,3.5,12.7,7.2,12.7,13.3v0.1c0,7.4-6,12.5-14.3,12.5
		C592.4,714.3,587.2,712.3,582.4,707.8z"/>
	<path fill="#FFFFFF" d="M631.2,672.3h-12.9v-4.6H649v4.6h-12.9v41.4h-4.9L631.2,672.3L631.2,672.3z"/>
	<path fill="#FFFFFF" d="M652.1,691.1v-0.5c0-13.5,8.1-23.5,19.8-23.5s19.7,9.9,19.7,23.4v0.5c0,13.5-8.1,23.5-19.8,23.5
		S652.1,704.5,652.1,691.1z M686.6,691v-0.5c0-11.1-6.2-19-14.7-19s-14.7,7.8-14.7,18.9v0.5c0,11.1,6.2,19,14.7,19
		S686.6,702.1,686.6,691z"/>
	<path fill="#FFFFFF" d="M700.7,667.8h15.7c5.3,0,9.5,1.6,12.1,4.3c2.3,2.3,3.6,5.6,3.6,9.5v0.1c0,7.3-4.5,11.7-10.9,13.3l12.4,18.9
		h-5.9l-11.7-18h-10.4v17.9h-4.9L700.7,667.8L700.7,667.8z M715.5,691.3c7.5,0,11.6-3.7,11.6-9.6v-0.1c0-6-4.2-9.4-11.1-9.4h-10.4
		v19.1H715.5z"/>
	<path fill="#FFFFFF" d="M751.4,695.2l-16.2-27.5h5.7l13,22.5l13-22.5h5.6L756.3,695v18.7h-5v-18.5H751.4z"/>
</g>
</svg>
