[
{"title":"Cult Classics: A to Z","description":"From Arrested Development to Zappa","cdnPath":"http://cdn.rollingstone.com/feature/cult-classics","slug":"culture/features/cult-classics-a-to-z","adLink":"https://ad.doubleclick.net/ddm/clk/295253292;122236836;h","adLinkImg":"https://ad.doubleclick.net/ddm/ad/N8704.5218WENNERMEDIAROLLINGSTON/B9007972.122236836;sz=1x1;ord=%%CACHEBUSTER%%?"}
]
